{
  "data": [
    {
      "category": "3.10",
      "date": "2024-09",
      "downloads": 219
    },
    {
      "category": "3.10",
      "date": "2024-10",
      "downloads": 240
    },
    {
      "category": "3.10",
      "date": "2024-11",
      "downloads": 240
    },
    {
      "category": "3.10",
      "date": "2024-12",
      "downloads": 254
    },
    {
      "category": "3.10",
      "date": "2025-01",
      "downloads": 249
    },
    {
      "category": "3.10",
      "date": "2025-02",
      "downloads": 216
    },
    {
      "category": "3.10",
      "date": "2025-03",
      "downloads": 33
    },
    {
      "category": "3.11",
      "date": "2024-09",
      "downloads": 220
    },
    {
      "category": "3.11",
      "date": "2024-10",
      "downloads": 243
    },
    {
      "category": "3.11",
      "date": "2024-11",
      "downloads": 240
    },
    {
      "category": "3.11",
      "date": "2024-12",
      "downloads": 251
    },
    {
      "category": "3.11",
      "date": "2025-01",
      "downloads": 248
    },
    {
      "category": "3.11",
      "date": "2025-02",
      "downloads": 218
    },
    {
      "category": "3.11",
      "date": "2025-03",
      "downloads": 32
    },
    {
      "category": "3.12",
      "date": "2024-09",
      "downloads": 218
    },
    {
      "category": "3.12",
      "date": "2024-10",
      "downloads": 238
    },
    {
      "category": "3.12",
      "date": "2024-11",
      "downloads": 242
    },
    {
      "category": "3.12",
      "date": "2024-12",
      "downloads": 252
    },
    {
      "category": "3.12",
      "date": "2025-01",
      "downloads": 252
    },
    {
      "category": "3.12",
      "date": "2025-02",
      "downloads": 218
    },
    {
      "category": "3.12",
      "date": "2025-03",
      "downloads": 32
    },
    {
      "category": "3.13",
      "date": "2024-11",
      "downloads": 2
    },
    {
      "category": "3.13",
      "date": "2025-01",
      "downloads": 2
    },
    {
      "category": "3.8",
      "date": "2024-09",
      "downloads": 216
    },
    {
      "category": "3.8",
      "date": "2024-10",
      "downloads": 248
    },
    {
      "category": "3.8",
      "date": "2024-11",
      "downloads": 240
    },
    {
      "category": "3.8",
      "date": "2024-12",
      "downloads": 252
    },
    {
      "category": "3.8",
      "date": "2025-01",
      "downloads": 249
    },
    {
      "category": "3.8",
      "date": "2025-02",
      "downloads": 216
    },
    {
      "category": "3.8",
      "date": "2025-03",
      "downloads": 32
    },
    {
      "category": "3.9",
      "date": "2024-10",
      "downloads": 4
    },
    {
      "category": "3.9",
      "date": "2024-11",
      "downloads": 1
    },
    {
      "category": "3.9",
      "date": "2024-12",
      "downloads": 2
    },
    {
      "category": "3.9",
      "date": "2025-01",
      "downloads": 2
    },
    {
      "category": "null",
      "date": "2024-09",
      "downloads": 36
    },
    {
      "category": "null",
      "date": "2024-10",
      "downloads": 67
    },
    {
      "category": "null",
      "date": "2024-11",
      "downloads": 34
    },
    {
      "category": "null",
      "date": "2024-12",
      "downloads": 25
    },
    {
      "category": "null",
      "date": "2025-01",
      "downloads": 58
    },
    {
      "category": "null",
      "date": "2025-02",
      "downloads": 35
    },
    {
      "category": "null",
      "date": "2025-03",
      "downloads": 10
    }
  ],
  "package": "pilli",
  "type": "python_minor_downloads"
}
